Applied Proteomics
…
spectrum_count

ANSWER (put your r-code chunk after this)

2C) Which variables are numeric? Do you need to change the class of these variables? Use the head, or the class command)

ANSWER (put your r-code chunk after this)

Summarize the data

Summarize the data for the total of experiments in nbt1328_s2 running the following code: Discuss with your neighbour the code steps, do you understand what is happening? I will pick somebody to explain, so be prepared!

nbt1328_S2

## # A tibble: 117,937 x 7
##    ipi_acc_no protein kinase experiment_id spectrum_count peptide_sequence
##    <chr>      <chr>   <chr>          <int>          <int> <chr>           
##  1 IPI002922 GSK3A   GSK3A              1              3 LTIPILYVK       
##  2 IPI002963 PRKDC   DNAPK              1              2 AQEPESGLSEETQVK 
##  3 IPI002963 PRKDC   DNAPK              1              1 AYVPALQMAFK     
##  4 IPI002922 GSK3A   GSK3A              1              2 VYMYQLFR        
##  5 IPI002963 PRKDC   DNAPK              1              1 EFPPGTPR        
##  6 IPI004302 CAMK2D  CaMK2d             1              1 FTDEYQLFEELGK   
##  7 IPI002963 PRKDC   DNAPK              1              3 QLFSSLFSGILK    
##  8 IPI002161 GSK3B   GSK3B              1              3 VIGNGSFGVVYQAK  
##  9 IPI002963 PRKDC   DNAPK              1              1 LPSNTLDR        
## 10 IPI002963 PRKDC   DNAPK              1              1 MYAALGDPK       
## # ... with 117,927 more rows, and 1 more variable:
## #   maximum_mascot_ions_score <int>
…
## check which experiment is available
# levels(as.factor(nbt1328_S2$experiment_id))
# nbt1328_S2$experiment_id

experiments <- c(142:149) %>% as.character()

nbt1328_S2_summary <- nbt1328_S2 %>%
  # filter for experiments:
  dplyr::filter(as.character(experiment_id) %in% as.character(experiments)) %>% 
  dplyr::group_by(ipi_acc_no, protein, experiment_id) %>%
  dplyr::summarise(sum_counts = sum(as.numeric(spectrum_count))) 

nbt1328_S2_summary

## # A tibble: 8,211 x 4
## # Groups:   ipi_acc_no, protein [?]
##    ipi_acc_no  protein                            experiment_id sum_counts
##    <chr>       <chr>                                      <int>      <dbl>
##  1 CZB00000043 BCR-ABL p210                                 142          9
##  2 CZB00000043 BCR-ABL p210                                 143         10
##  3 CZB00000043 BCR-ABL p210                                 144         38
##  4 CZB00000043 BCR-ABL p210                                 145          9
##  5 CZB00000043 BCR-ABL p210                                 146        208
##  6 CZB00000043 BCR-ABL p210                                 148       5159
##  7 CZB00000043 BCR-ABL p210                                 149        197
##  8 CZB00000100 14-3-3 zeta  human (IPI00021263.1)           144         26
##  9 CZB00000100 14-3-3 zeta  human (IPI00021263.1)           145        108
## 10 CZB00000100 14-3-3 zeta  human (IPI00021263.1)           146         88
## # ... with 8,201 more rows

nbt1328_S2_summary <- nbt1328_S2_summary %>% na.omit()
nbt1328_S2_summary

## # A tibble: 8,211 x 4
## # Groups:   ipi_acc_no, protein [2,979]
##    ipi_acc_no  protein                            experiment_id sum_counts
##    <chr>       <chr>                                      <int>      <dbl>
##  1 CZB00000043 BCR-ABL p210                                 142          9
##  2 CZB00000043 BCR-ABL p210                                 143         10
##  3 CZB00000043 BCR-ABL p210                                 144         38
##  4 CZB00000043 BCR-ABL p210                                 145          9
##  5 CZB00000043 BCR-ABL p210                                 146        208
##  6 CZB00000043 BCR-ABL p210                                 148       5159
##  7 CZB00000043 BCR-ABL p210                                 149        197
##  8 CZB00000100 14-3-3 zeta  human (IPI00021263.1)           144         26
##  9 CZB00000100 14-3-3 zeta  human (IPI00021263.1)           145        108
## 10 CZB00000100 14-3-3 zeta  human (IPI00021263.1)           146         88
## # ... with 8,201 more rows
…
## # A tibble: 6 x 5
##   experiment_id cell_line method     chemical profile
##           <int> <chr>     <chr>      <chr>    <chr>  
## 1           122 HeLa      Purvalanol B        none   
## 2           123 HeLa      Purvalanol B        none   
## 3           124 HeLa      Purvalanol B        none   
## 4           125 HeLa      Purvalanol B        none   
## 5           126 HeLa      Purvalanol B        none   
## 6           127 HeLa      Purvalanol B        none

labelling

## # A tibble: 60 x 5
##    experiment_id cell_line method     chemical profile
##            <int> <chr>     <chr>      <chr>    <chr>  
##  1           122 HeLa      Purvalanol B        none   
##  2           123 HeLa      Purvalanol B        none   
##  3           124 HeLa      Purvalanol B        none   
##  4           125 HeLa      Purvalanol B        none   
##  5           126 HeLa      Purvalanol B        none   
##  6           127 HeLa      Purvalanol B        none   
##  7           128 HeLa      Purvalanol B        none   
##  8           129 HeLa      Purvalanol B        none   
##  9           130 HeLa      Purvalanol B        none   
## 10           131 HeLa      Purvalanol B        none   
## # ... with 50 more rows
…
